C:\Users\hp\Downloads\password-authorization-type-master\src\main\java\com\authorization\admin\oauthEntity\UserEntity.java
C:\Users\hp\Downloads\password-authorization-type-master\src\main\java\com\authorization\admin\controller\GoogeSsoController.java
C:\Users\hp\Downloads\password-authorization-type-master\src\main\java\com\authorization\admin\controller\UserController.java
C:\Users\hp\Downloads\password-authorization-type-master\src\main\java\com\authorization\admin\dao\OAuthDao.java
C:\Users\hp\Downloads\password-authorization-type-master\src\main\java\com\authorization\admin\dto\Attributes.java
C:\Users\hp\Downloads\password-authorization-type-master\src\main\java\com\authorization\admin\serviceInterface\GoogleSsoUserService.java
C:\Users\hp\Downloads\password-authorization-type-master\src\main\java\com\authorization\admin\repository\RoleRepository.java
C:\Users\hp\Downloads\password-authorization-type-master\src\main\java\com\authorization\admin\config\BeanConfig.java
C:\Users\hp\Downloads\password-authorization-type-master\src\main\java\com\authorization\admin\service\UserServiceImpl.java
C:\Users\hp\Downloads\password-authorization-type-master\src\main\java\com\authorization\admin\response\SuccessResponse.java
C:\Users\hp\Downloads\password-authorization-type-master\src\main\java\com\authorization\admin\service\RoleServiceImpl.java
C:\Users\hp\Downloads\password-authorization-type-master\src\main\java\com\authorization\admin\oauthEntity\CustomUser.java
C:\Users\hp\Downloads\password-authorization-type-master\src\main\java\com\authorization\admin\serviceInterface\RoleService.java
C:\Users\hp\Downloads\password-authorization-type-master\src\main\java\com\authorization\admin\dto\GoogleAuthority.java
C:\Users\hp\Downloads\password-authorization-type-master\src\main\java\com\authorization\admin\AuthorizationServerApplication.java
C:\Users\hp\Downloads\password-authorization-type-master\src\main\java\com\authorization\admin\service\GoogleSsoUserServiceImpl.java
C:\Users\hp\Downloads\password-authorization-type-master\src\main\java\com\authorization\admin\serviceInterface\UserService.java
C:\Users\hp\Downloads\password-authorization-type-master\src\main\java\com\authorization\admin\oauthConfig\ResourceServerConfig.java
C:\Users\hp\Downloads\password-authorization-type-master\src\main\java\com\authorization\admin\tokenUtil\TokenUtil.java
C:\Users\hp\Downloads\password-authorization-type-master\src\main\java\com\authorization\admin\repository\UserRepository.java
C:\Users\hp\Downloads\password-authorization-type-master\src\main\java\com\authorization\admin\oauthEntity\User.java
C:\Users\hp\Downloads\password-authorization-type-master\src\main\java\com\authorization\admin\service\CustomDetailsService.java
C:\Users\hp\Downloads\password-authorization-type-master\src\main\java\com\authorization\admin\oauthConfig\AuthorizationServerConfig.java
C:\Users\hp\Downloads\password-authorization-type-master\src\main\java\com\authorization\admin\oauthConfig\WebSecurityConfig.java
C:\Users\hp\Downloads\password-authorization-type-master\src\main\java\com\authorization\admin\oauthEntity\Role.java
C:\Users\hp\Downloads\password-authorization-type-master\src\main\java\com\authorization\admin\dto\GoogleSsoResponseDto.java
